timeStamp,elapsed,label,responseCode,responseMessage,threadName,success,bytes,grpThreads,allThreads,Latency,Hostname,Connect
2022-11-17 07:56:37,1571,MARCA Ford,200,OK,Thread Group 1-1,true,69503,1,1,1064,b564e6936e6a,697rolet
2022-11-17 07:57:07,809,MARCA Chevrolet,200,OK,Thread Group 1-1,true,69579,1,1,327,b564e6936e6a,0rolet
2022-11-17 07:57:37,809,MARCA Fiat,200,OK,Thread Group 1-1,true,57944,2,2,337,b564e6936e6a,0
2022-11-17 07:58:07,1012,MARCA Ford,200,OK,Thread Group 1-2,true,69478,2,2,551,b564e6936e6a,199rolet
2022-11-17 07:58:37,710,MARCA Chevrolet,200,OK,Thread Group 1-1,true,69548,2,2,314,b564e6936e6a,0
2022-11-17 07:59:07,720,MARCA Fiat,200,OK,Thread Group 1-2,false,57933,2,2,307,b564e6936e6a,0rolet
2022-11-17 07:59:37,1024,MARCA Ford,200,OK,Thread Group 1-1,true,69508,2,2,302,b564e6936e6a,0
2022-11-17 08:00:07,719,MARCA Chevrolet,200,OK,Thread Group 1-2,true,69563,2,2,329,b564e6936e6a,0
2022-11-17 08:00:37,740,MARCA Fiat,200,OK,Thread Group 1-1,false,57985,3,3,311,b564e6936e6a,0
2022-11-17 08:01:07,755,MARCA Ford,200,OK,Thread Group 1-2,true,69508,3,3,332,b564e6936e6a,0
2022-11-17 08:02:37,975,MARCA Chevrolet,200,OK,Thread Group 1-3,true,69526,3,3,523,b564e6936e6a,167
2022-11-17 08:03:37,721,MARCA Fiat,200,OK,Thread Group 1-1,true,57955,3,3,323,b564e6936e6a,0
2022-11-17 08:04:37,721,MARCA Ford,200,OK,Thread Group 1-2,true,69532,3,3,317,b564e6936e6a,0rolet
2022-11-17 08:05:37,740,MARCA Chevrolet,200,OK,Thread Group 1-3,true,69522,3,3,322,b564e6936e6a,0rolet
2022-11-17 08:06:37,770,MARCA Fiat,200,OK,Thread Group 1-1,true,57984,3,3,322,b564e6936e6a,0
2022-11-17 08:07:37,794,MARCA Ford,200,OK,Thread Group 1-2,true,69481,3,3,356,b564e6936e6a,0rolet
2022-11-17 08:08:37,735,MARCA Chevrolet,200,OK,Thread Group 1-3,true,69538,3,3,328,b564e6936e6a,0
2022-11-17 08:09:37,702,MARCA Ford,200,OK,Thread Group 1-2,false,69508,3,3,310,b564e6936e6a,0rolet
2022-11-17 08:20:37,873,MARCA Chevrolet,200,OK,Thread Group 1-3,true,69568,4,4,331,b564e6936e6a,0
2022-11-17 08:21:37,1571,MARCA Ford,200,OK,Thread Group 1-1,true,69503,1,1,1064,b564e6936e6a,697
2022-11-17 08:22:37,809,MARCA Chevrolet,200,OK,Thread Group 1-1,true,69579,1,1,327,b564e6936e6a,0
2022-11-17 08:23:37,809,MARCA Fiat,200,OK,Thread Group 1-1,false,57944,2,2,337,b564e6936e6a,0
2022-11-17 08:25:37,1012,MARCA Ford,200,OK,Thread Group 1-2,true,69478,2,2,551,b564e6936e6a,199
2022-11-15 07:56:37,710,MARCA Chevrolet,200,OK,Thread Group 1-1,true,69548,2,2,314,b564e6936e6a,0rolet
2022-11-15 07:57:07,720,MARCA Fiat,200,OK,Thread Group 1-2,true,57933,2,2,307,b564e6936e6a,0rolet
2022-11-15 07:56:07,1024,MARCA Ford,200,OK,Thread Group 1-1,false,69508,2,2,302,b564e6936e6a,0
2022-11-15 07:57:37,719,MARCA Chevrolet,200,OK,Thread Group 1-2,true,69563,2,2,329,b564e6936e6a,0
2022-11-15 07:58:07,740,MARCA Fiat,200,OK,Thread Group 1-1,true,57985,3,3,311,b564e6936e6a,0rolet
2022-11-15 07:58:37,755,MARCA Ford,200,OK,Thread Group 1-2,true,69508,3,3,332,b564e6936e6a,0
2022-11-15 07:59:07,975,MARCA Chevrolet,200,OK,Thread Group 1-3,true,69526,3,3,523,b564e6936e6a,167rolet
2022-11-15 07:59:37,721,MARCA Fiat,200,OK,Thread Group 1-1,false,57955,3,3,323,b564e6936e6a,0
2022-11-15 08:00:07,721,MARCA Ford,200,OK,Thread Group 1-2,true,69532,3,3,317,b564e6936e6a,0